strict digraph {
  isobutylbenzene [color=green,shape=circle,type=product,from=ibuprofen]
  isopropanol [color=pink,shape=circle,from=isobutylbenzene]
  ibuprofen [color=green,shape=circle,type=product,from=ibuprofen]
  "ibuprofen sodium" [color=pink,shape=circle,from=ibuprofen]
  "methyl α-(4-isobutylphenyl)propionate" [color=yellow,shape=circle,type=product,from=both]
  "dimethyl carbonate" [color=yellow,shape=circle,type=product,from=both]
  "1-(4-isobutylphenyl)propan-1-one" [color=pink,shape=circle,from=ibuprofen]
  "α-(4-isobutylphenyl)propionaldehyde" [color=pink,shape=circle,from=ibuprofen]
  "1-chloro-1-(4-isobutylphenyl)ethane" [color=pink,shape=circle,from=ibuprofen]
  "(2RS)-2-(4-isobutylphenyl)-propanoyl chloride" [color=pink,shape=circle,from=ibuprofen]
  isopropanol -> isobutylbenzene [color=gray,label="357c8a7c-6450-4d99-a41a-c2e14702ecc5"]
  "ibuprofen sodium" -> ibuprofen [color=gray,label="cf603040-4b1b-408f-a18f-acd61c88541b"]
  "methyl α-(4-isobutylphenyl)propionate" -> ibuprofen [color=gray,label="fd454fee-c1c0-449a-b0a6-cfcaeb9befe5"]
  "dimethyl carbonate" -> ibuprofen [color=gray,label="d11ba7ae-5839-4a67-8231-54f437270a30"]
  "1-(4-isobutylphenyl)propan-1-one" -> ibuprofen [color=gray,label="fd454fee-c1c0-449a-b0a6-cfcaeb9befe5"]
  "α-(4-isobutylphenyl)propionaldehyde" -> ibuprofen [color=gray,label="4961c988-3bdb-4bd6-ba3a-677719f6e806"]
  "1-chloro-1-(4-isobutylphenyl)ethane" -> ibuprofen [color=gray,label="3c08b5dc-e279-4687-bedc-759cb74c2aa5"]
  ibuprofen -> "ibuprofen sodium" [color=gray,label="8b7834fe-2b2d-4b4c-b5f9-3c931654091c"]
  isobutylbenzene -> "1-chloro-1-(4-isobutylphenyl)ethane" [color=gray,label="6961c490-5a16-4f53-98ba-509e6ecff540"]
  ibuprofen -> "methyl α-(4-isobutylphenyl)propionate" [color=gray,label="c1c65ba5-361a-466d-8771-2885c437a57f"]
  isobutylbenzene -> "1-(4-isobutylphenyl)propan-1-one" [color=gray,label="2fe50c6d-e591-4156-b2ea-ed2a8b3bb41d"]
  "(2RS)-2-(4-isobutylphenyl)-propanoyl chloride" -> "α-(4-isobutylphenyl)propionaldehyde" [color=gray,label="d0a8f6f3-4790-40d5-8944-01cd8542d661"]
  ibuprofen -> "(2RS)-2-(4-isobutylphenyl)-propanoyl chloride" [color=gray,label="715f6bfc-7983-43eb-adf4-31fb6c1c1ec2"]
  "dimethyl carbonate" -> isopropanol [color=gray,label="3070916b-c7da-4919-a6be-3ac886cd5a0b"]
  "methyl α-(4-isobutylphenyl)propionate" -> "dimethyl carbonate" [color=gray,label="caf73e5b-6785-413b-b980-a6e4d6d65ac2"]
}
